<?xml version="1.0" encoding="UTF-8"?>
<!-- Generated by org.testng.reporters.JUnitReportReporter -->
<testsuite hostname="L-INE-JDPCQG3" failures="1" tests="5" name="com.reqres.TestCases.TC001_GET_AllUsers" time="1.502" errors="0" timestamp="2023-11-29T11:44:05 IST" skipped="0">
  <testcase classname="com.reqres.TestCases.TC001_GET_AllUsers" name="checkResponseBody" time="1.458">
    <failure message="expected [{
    &quot;page&quot;: 1,
    &quot;per_page&quot;: 6,
    &quot;total&quot;: 12,
    &quot;total_pages&quot;: 2,
    &quot;data&quot;: [
        {
            &quot;id&quot;: 1,
            &quot;email&quot;: &quot;george.bluth@reqres.in&quot;,
            &quot;first_name&quot;: &quot;George&quot;,
            &quot;last_name&quot;: &quot;Bluth&quot;,
            &quot;avatar&quot;: &quot;https://reqres.in/img/faces/1-image.jpg&quot;
        },
        {
            &quot;id&quot;: 2,
            &quot;email&quot;: &quot;janet.weaver@reqres.in&quot;,
            &quot;first_name&quot;: &quot;Janet&quot;,
            &quot;last_name&quot;: &quot;Weaver&quot;,
            &quot;avatar&quot;: &quot;https://reqres.in/img/faces/2-image.jpg&quot;
        },
        {
            &quot;id&quot;: 3,
            &quot;email&quot;: &quot;emma.wong@reqres.in&quot;,
            &quot;first_name&quot;: &quot;Emma&quot;,
            &quot;last_name&quot;: &quot;Wong&quot;,
            &quot;avatar&quot;: &quot;https://reqres.in/img/faces/3-image.jpg&quot;
        },
        {
            &quot;id&quot;: 4,
            &quot;email&quot;: &quot;eve.holt@reqres.in&quot;,
            &quot;first_name&quot;: &quot;Eve&quot;,
            &quot;last_name&quot;: &quot;Holt&quot;,
            &quot;avatar&quot;: &quot;https://reqres.in/img/faces/4-image.jpg&quot;
        },
        {
            &quot;id&quot;: 5,
            &quot;email&quot;: &quot;charles.morris@reqres.in&quot;,
            &quot;first_name&quot;: &quot;Charles&quot;,
            &quot;last_name&quot;: &quot;Morris&quot;,
            &quot;avatar&quot;: &quot;https://reqres.in/img/faces/5-image.jpg&quot;
        },
        {
            &quot;id&quot;: 6,
            &quot;email&quot;: &quot;tracey.ramos@reqres.in&quot;,
            &quot;first_name&quot;: &quot;Tracey&quot;,
            &quot;last_name&quot;: &quot;Ramos&quot;,
            &quot;avatar&quot;: &quot;https://reqres.in/img/faces/6-image.jpg&quot;
        }
    ],
    &quot;support&quot;: {
        &quot;url&quot;: &quot;https://reqres.in/#support-heading&quot;,
        &quot;text&quot;: &quot;To keep ReqRes free, contributions towards server costs are appreciated!&quot;
    }
}] but found []" type="java.lang.AssertionError">
      <![CDATA[java.lang.AssertionError: expected [{
    "page": 1,
    "per_page": 6,
    "total": 12,
    "total_pages": 2,
    "data": [
        {
            "id": 1,
            "email": "george.bluth@reqres.in",
            "first_name": "George",
            "last_name": "Bluth",
            "avatar": "https://reqres.in/img/faces/1-image.jpg"
        },
        {
            "id": 2,
            "email": "janet.weaver@reqres.in",
            "first_name": "Janet",
            "last_name": "Weaver",
            "avatar": "https://reqres.in/img/faces/2-image.jpg"
        },
        {
            "id": 3,
            "email": "emma.wong@reqres.in",
            "first_name": "Emma",
            "last_name": "Wong",
            "avatar": "https://reqres.in/img/faces/3-image.jpg"
        },
        {
            "id": 4,
            "email": "eve.holt@reqres.in",
            "first_name": "Eve",
            "last_name": "Holt",
            "avatar": "https://reqres.in/img/faces/4-image.jpg"
        },
        {
            "id": 5,
            "email": "charles.morris@reqres.in",
            "first_name": "Charles",
            "last_name": "Morris",
            "avatar": "https://reqres.in/img/faces/5-image.jpg"
        },
        {
            "id": 6,
            "email": "tracey.ramos@reqres.in",
            "first_name": "Tracey",
            "last_name": "Ramos",
            "avatar": "https://reqres.in/img/faces/6-image.jpg"
        }
    ],
    "support": {
        "url": "https://reqres.in/#support-heading",
        "text": "To keep ReqRes free, contributions towards server costs are appreciated!"
    }
}] but found []
at org.testng.Assert.fail(Assert.java:111)
at org.testng.Assert.failNotEquals(Assert.java:1578)
at org.testng.Assert.assertEqualsImpl(Assert.java:150)
at org.testng.Assert.assertEquals(Assert.java:132)
at org.testng.Assert.assertEquals(Assert.java:644)
at com.reqres.Base.BaseClass.validateResponseBody(BaseClass.java:130)
at com.reqres.TestCases.TC001_GET_AllUsers.checkResponseBody(TC001_GET_AllUsers.java:23)
at java.base/jdk.internal.reflect.NativeMethodAccessorImpl.invoke0(Native Method)
at java.base/jdk.internal.reflect.NativeMethodAccessorImpl.invoke(NativeMethodAccessorImpl.java:77)
at java.base/jdk.internal.reflect.DelegatingMethodAccessorImpl.invoke(DelegatingMethodAccessorImpl.java:43)
at java.base/java.lang.reflect.Method.invoke(Method.java:568)
at org.testng.internal.invokers.MethodInvocationHelper.invokeMethod(MethodInvocationHelper.java:139)
at org.testng.internal.invokers.TestInvoker.invokeMethod(TestInvoker.java:664)
at org.testng.internal.invokers.TestInvoker.invokeTestMethod(TestInvoker.java:227)
at org.testng.internal.invokers.MethodRunner.runInSequence(MethodRunner.java:50)
at org.testng.internal.invokers.TestInvoker$MethodInvocationAgent.invoke(TestInvoker.java:957)
at org.testng.internal.invokers.TestInvoker.invokeTestMethods(TestInvoker.java:200)
at org.testng.internal.invokers.TestMethodWorker.invokeTestMethods(TestMethodWorker.java:148)
at org.testng.internal.invokers.TestMethodWorker.run(TestMethodWorker.java:128)
at java.base/java.util.ArrayList.forEach(ArrayList.java:1511)
at org.testng.TestRunner.privateRun(TestRunner.java:848)
at org.testng.TestRunner.run(TestRunner.java:621)
at org.testng.SuiteRunner.runTest(SuiteRunner.java:443)
at org.testng.SuiteRunner.runSequentially(SuiteRunner.java:437)
at org.testng.SuiteRunner.privateRun(SuiteRunner.java:397)
at org.testng.SuiteRunner.run(SuiteRunner.java:336)
at org.testng.SuiteRunnerWorker.runSuite(SuiteRunnerWorker.java:52)
at org.testng.SuiteRunnerWorker.run(SuiteRunnerWorker.java:95)
at org.testng.TestNG.runSuitesSequentially(TestNG.java:1280)
at org.testng.TestNG.runSuitesLocally(TestNG.java:1200)
at org.testng.TestNG.runSuites(TestNG.java:1114)
at org.testng.TestNG.run(TestNG.java:1082)
at org.testng.remote.AbstractRemoteTestNG.run(AbstractRemoteTestNG.java:115)
at org.testng.remote.RemoteTestNG.initAndRun(RemoteTestNG.java:251)
at org.testng.remote.RemoteTestNG.main(RemoteTestNG.java:77)
]]>
    </failure>
  </testcase> <!-- checkResponseBody -->
  <testcase classname="com.reqres.TestCases.TC001_GET_AllUsers" name="checkStatusCode" time="0.010"/>
  <testcase classname="com.reqres.TestCases.TC001_GET_AllUsers" name="checkStatusLine" time="0.009"/>
  <testcase classname="com.reqres.TestCases.TC001_GET_AllUsers" name="checkResponseTime" time="0.016"/>
  <testcase classname="com.reqres.TestCases.TC001_GET_AllUsers" name="checkContentType" time="0.009"/>
</testsuite> <!-- com.reqres.TestCases.TC001_GET_AllUsers -->
